…
# 2. Forecast based on electricity consumption and outdoor temperature

We will use a dynamic regression model for forecasting electricity
demand, using temperature as an external covariate. The order of the
ARIMA model for the residual part is automatically selected

``` r
power <- ts(data$`Power (kW)`, frequency = 96)
power_clean<-tsclean(power) # to clean the outliers
data$power<-power_clean
data
```

    ## # A tibble: 4,987 × 4
    ##    Timestamp           `Power (kW)` `Temp (C°)` power
    ##    <dttm>                     <dbl>       <dbl> <dbl>
    ##  1 2010-01-01 01:15:00         165.        10.6  165.
    ##  2 2010-01-01 01:30:00         152.        10.6  152.
    ##  3 2010-01-01 01:45:00         147.        10.6  147.
    ##  4 2010-01-01 02:00:00         154.        10.6  154.
    ##  5 2010-01-01 02:15:00         154.        10.6  154.
    ##  6 2010-01-01 02:30:00         159         10.6  159 
    ##  7 2010-01-01 02:45:00         158.        10.6  158.
    ##  8 2010-01-01 02:59:59         163.        10.6  163.
    ##  9 2010-01-01 03:14:59         152.        10    152.
    ## 10 2010-01-01 03:29:59         149.        10    149.
    ## # ℹ 4,977 more rows
…
